\relax 
\bibcite{c1}{0}
\bibcite{c2}{0}
\bibcite{c3}{0}
\bibcite{c4}{0}
\bibcite{c5}{0}
\bibcite{c6}{0}
\bibcite{c7}{0}
\bibcite{c8}{0}
\bibcite{c9}{0}
\bibcite{c10}{0}
\bibcite{c11}{0}
\bibcite{c12}{0}
\bibcite{c13}{0}
\bibcite{c14}{0}
\bibcite{c15}{0}
\bibcite{c16}{0}
\bibcite{c17}{0}
\bibcite{c18}{0}
\bibcite{c19}{0}
\bibcite{c20}{0}
\newlabel{table_example}{{}{}}
\newlabel{figurelabel}{{}{}}
